Lecture 4/fa_tb.vcd
$date
  Tue Jul 04 14:40:44 2023
$end
$version
  GHDL v0
$end
$timescale
  1 fs
$end
$var reg 1 ! a $end
$var reg 1 " b $end
$var reg 1 # cin $end
$var reg 1 $ sum $end
$var reg 1 % cout $end
$scope module fa0 $end
$var reg 1 & a $end
$var reg 1 ' b $end
$var reg 1 ( cin $end
$var reg 1 ) sum $end
$var reg 1 * cout $end
$upscope $end
$enddefinitions $end
#0
0!
0"
0#
0$
0%
0&
0'
0(
0)
0*
#10000000
1!
1$
1&
1)
#20000000
0!
1"
0&
1'
#30000000
1!
0$
1%
1&
0)
1*
#40000000
0!
0"
1#
1$
0%
0&
0'
1(
1)
0*
#50000000
1!
0$
1%
1&
0)
1*
#60000000
0!
1"
0&
1'
#70000000
1!
1$
1&
1)
#80000000
0!
0"
0#
0$
0%
0&
0'
0(
0)
0*
#90000000
1!
1$
1&
1)
#100000000
0!
1"
0&
1'
#110000000
1!
0$
1%
1&
0)
1*
#120000000
0!
0"
1#
1$
0%
0&
0'
1(
1)
0*
#130000000
1!
0$
1%
1&
0)
1*
#140000000
0!
1"
0&
1'
#150000000
1!
1$
1&
1)
#160000000
0!
0"
0#
0$
0%
0&
0'
0(
0)
0*
#170000000
1!
1$
1&
1)
#180000000
0!
1"
0&
1'
#190000000
1!
0$
1%
1&
0)
1*
#200000000
0!
0"
1#
1$
0%
0&
0'
1(
1)
0*
#210000000
1!
0$
1%
1&
0)
1*
#220000000
0!
1"
0&
1'
#230000000
1!
1$
1&
1)
#240000000
0!
0"
0#
0$
0%
0&
0'
0(
0)
0*
#250000000
1!
1$
1&
1)
#260000000
0!
1"
0&
1'
#270000000
1!
0$
1%
1&
0)
1*
#280000000
0!
0"
1#
1$
0%
0&
0'
1(
1)
0*
#290000000
1!
0$
1%
1&
0)
1*
#300000000
0!
1"
0&
1'
#310000000
1!
1$
1&
1)
#320000000
0!
0"
0#
0$
0%
0&
0'
0(
0)
0*
#330000000
1!
1$
1&
1)
#340000000
0!
1"
0&
1'
#350000000
1!
0$
1%
1&
0)
1*
#360000000
0!
0"
1#
1$
0%
0&
0'
1(
1)
0*
#370000000
1!
0$
1%
1&
0)
1*
#380000000
0!
1"
0&
1'
#390000000
1!
1$
1&
1)
#400000000
0!
0"
0#
0$
0%
0&
0'
0(
0)
0*
#410000000
1!
1$
1&
1)
#420000000
0!
1"
0&
1'
#430000000
1!
0$
1%
1&
0)
1*
#440000000
0!
0"
1#
1$
0%
0&
0'
1(
1)
0*
#450000000
1!
0$
1%
1&
0)
1*
#460000000
0!
1"
0&
1'
#470000000
1!
1$
1&
1)
#480000000
0!
0"
0#
0$
0%
0&
0'
0(
0)
0*
#490000000
1!
1$
1&
1)
