Lecture 4/SRff_tb.vcd
$date
  Mon Jul 03 00:15:44 2023
$end
$version
  GHDL v0
$end
$timescale
  1 fs
$end
$var reg 1 ! s $end
$var reg 1 " r $end
$var reg 1 # clk $end
$var reg 1 $ q $end
$var reg 1 % qbar $end
$scope module srff0 $end
$var reg 1 & s $end
$var reg 1 ' r $end
$var reg 1 ( clk $end
$var reg 1 ) q $end
$var reg 1 * qbar $end
$upscope $end
$enddefinitions $end
#0
0!
0"
1#
U$
U%
0&
0'
1(
U)
U*
#4000000
0#
0(
#8000000
1#
1(
#12000000
1"
0#
1'
0(
#16000000
1#
0$
1%
1(
0)
1*
#20000000
0#
0(
#24000000
1!
0"
1#
1$
0%
1&
0'
1(
1)
0*
#28000000
0#
0(
#32000000
1#
1(
#36000000
1"
0#
1'
0(
#40000000
1#
X$
X%
1(
X)
X*
#44000000
0#
0(
#48000000
0!
0"
1#
0&
0'
1(
#52000000
0#
0(
#56000000
1#
1(
#60000000
1"
0#
1'
0(
#64000000
1#
0$
1%
1(
0)
1*
#68000000
0#
0(
#72000000
1!
0"
1#
1$
0%
1&
0'
1(
1)
0*
#76000000
0#
0(
#80000000
1#
1(
#84000000
1"
0#
1'
0(
#88000000
1#
X$
X%
1(
X)
X*
#92000000
0#
0(
#96000000
0!
0"
1#
0&
0'
1(
#100000000
0#
0(
#104000000
1#
1(
#108000000
1"
0#
1'
0(
#112000000
1#
0$
1%
1(
0)
1*
#116000000
0#
0(
#120000000
1!
0"
1#
1$
0%
1&
0'
1(
1)
0*
#124000000
0#
0(
#128000000
1#
1(
#132000000
1"
0#
1'
0(
#136000000
1#
X$
X%
1(
X)
X*
#140000000
0#
0(
#144000000
0!
0"
1#
0&
0'
1(
#148000000
0#
0(
#152000000
1#
1(
#156000000
1"
0#
1'
0(
#160000000
1#
0$
1%
1(
0)
1*
#164000000
0#
0(
#168000000
1!
0"
1#
1$
0%
1&
0'
1(
1)
0*
#172000000
0#
0(
#176000000
1#
1(
#180000000
1"
0#
1'
0(
#184000000
1#
X$
X%
1(
X)
X*
#188000000
0#
0(
#192000000
0!
0"
1#
0&
0'
1(
#196000000
0#
0(
#200000000
1#
1(
#204000000
1"
0#
1'
0(
#208000000
1#
0$
1%
1(
0)
1*
#212000000
0#
0(
#216000000
1!
0"
1#
1$
0%
1&
0'
1(
1)
0*
#220000000
0#
0(
#224000000
1#
1(
#228000000
1"
0#
1'
0(
#232000000
1#
X$
X%
1(
X)
X*
#236000000
0#
0(
#240000000
0!
0"
1#
0&
0'
1(
#244000000
0#
0(
#248000000
1#
1(
#252000000
1"
0#
1'
0(
#256000000
1#
0$
1%
1(
0)
1*
#260000000
0#
0(
#264000000
1!
0"
1#
1$
0%
1&
0'
1(
1)
0*
#268000000
0#
0(
#272000000
1#
1(
#276000000
1"
0#
1'
0(
#280000000
1#
X$
X%
1(
X)
X*
#284000000
0#
0(
#288000000
0!
0"
1#
0&
0'
1(
#292000000
0#
0(
#296000000
1#
1(
#300000000
1"
0#
1'
0(
#304000000
1#
0$
1%
1(
0)
1*
#308000000
0#
0(
#312000000
1!
0"
1#
1$
0%
1&
0'
1(
1)
0*
#316000000
0#
0(
#320000000
1#
1(
#324000000
1"
0#
1'
0(
#328000000
1#
X$
X%
1(
X)
X*
#332000000
0#
0(
#336000000
0!
0"
1#
0&
0'
1(
#340000000
0#
0(
#344000000
1#
1(
#348000000
1"
0#
1'
0(
#352000000
1#
0$
1%
1(
0)
1*
#356000000
0#
0(
#360000000
1!
0"
1#
1$
0%
1&
0'
1(
1)
0*
#364000000
0#
0(
#368000000
1#
1(
#372000000
1"
0#
1'
0(
#376000000
1#
X$
X%
1(
X)
X*
#380000000
0#
0(
#384000000
0!
0"
1#
0&
0'
1(
#388000000
0#
0(
#392000000
1#
1(
#396000000
1"
0#
1'
0(
#400000000
1#
0$
1%
1(
0)
1*
#404000000
0#
0(
#408000000
1!
0"
1#
1$
0%
1&
0'
1(
1)
0*
#412000000
0#
0(
#416000000
1#
1(
#420000000
1"
0#
1'
0(
#424000000
1#
X$
X%
1(
X)
X*
#428000000
0#
0(
#432000000
0!
0"
1#
0&
0'
1(
#436000000
0#
0(
#440000000
1#
1(
#444000000
1"
0#
1'
0(
#448000000
1#
0$
1%
1(
0)
1*
#452000000
0#
0(
#456000000
1!
0"
1#
1$
0%
1&
0'
1(
1)
0*
#460000000
0#
0(
#464000000
1#
1(
#468000000
1"
0#
1'
0(
#472000000
1#
X$
X%
1(
X)
X*
#476000000
0#
0(
#480000000
0!
0"
1#
0&
0'
1(
#484000000
0#
0(
#488000000
1#
1(
#492000000
1"
0#
1'
0(
#496000000
1#
0$
1%
1(
0)
1*
