Lecture 5/traffic_light_system_moore_tb.vcd
$date
  Sun May 14 16:45:42 2023
$end
$version
  GHDL v0
$end
$timescale
  1 fs
$end
$var reg 1 ! clk $end
$var reg 1 " reset $end
$var reg 1 # enable $end
$var reg 1 $ red $end
$var reg 1 % yellow $end
$var reg 1 & green $end
$scope module uut $end
$var reg 1 ' clk $end
$var reg 1 ( reset $end
$var reg 1 ) enable $end
$var reg 1 * red $end
$var reg 1 + yellow $end
$var reg 1 , green $end
$comment current_state is not handled $end
$comment next_state is not handled $end
$var reg 1 - out_red $end
$var reg 1 . out_yellow $end
$var reg 1 / out_green $end
$upscope $end
$enddefinitions $end
#0
0!
1"
0#
0$
1%
0&
0'
1(
0)
0*
1+
0,
0-
1.
0/
#10000000
1!
1'
#20000000
0!
0"
1#
0'
0(
1)
#30000000
1!
0%
1&
1'
0+
1,
0.
1/
#40000000
0!
0'
#50000000
1!
1$
0&
1'
1*
0,
1-
0/
#60000000
0!
0'
#70000000
1!
0$
1%
1'
0*
1+
0-
1.
#80000000
0!
0'
#90000000
1!
0%
1&
1'
0+
1,
0.
1/
#100000000
0!
0'
#110000000
1!
1$
0&
1'
1*
0,
1-
0/
#120000000
0!
0'
#130000000
1!
0$
1%
1'
0*
1+
0-
1.
#140000000
0!
0'
#150000000
1!
0%
1&
1'
0+
1,
0.
1/
#160000000
0!
0'
#170000000
1!
1$
0&
1'
1*
0,
1-
0/
#180000000
0!
0'
#190000000
1!
0$
1%
1'
0*
1+
0-
1.
#200000000
0!
0'
#210000000
1!
0%
1&
1'
0+
1,
0.
1/
#220000000
0!
0'
#230000000
1!
1$
0&
1'
1*
0,
1-
0/
#240000000
0!
0'
#250000000
1!
0$
1%
1'
0*
1+
0-
1.
#260000000
0!
0'
#270000000
1!
0%
1&
1'
0+
1,
0.
1/
#280000000
0!
0'
#290000000
1!
1$
0&
1'
1*
0,
1-
0/
#300000000
0!
0'
#310000000
1!
0$
1%
1'
0*
1+
0-
1.
#320000000
0!
0'
#330000000
1!
0%
1&
1'
0+
1,
0.
1/
#340000000
0!
0'
#350000000
1!
1$
0&
1'
1*
0,
1-
0/
#360000000
0!
0'
#370000000
1!
0$
1%
1'
0*
1+
0-
1.
#380000000
0!
0'
#390000000
1!
0%
1&
1'
0+
1,
0.
1/
#400000000
0!
0'
#410000000
1!
1$
0&
1'
1*
0,
1-
0/
#420000000
0!
0'
#430000000
1!
0$
1%
1'
0*
1+
0-
1.
#440000000
0!
0'
#450000000
1!
0%
1&
1'
0+
1,
0.
1/
#460000000
0!
0'
#470000000
1!
1$
0&
1'
1*
0,
1-
0/
#480000000
0!
0'
#490000000
1!
0$
1%
1'
0*
1+
0-
1.
#500000000
0!
0'
#510000000
1!
0%
1&
1'
0+
1,
0.
1/
#520000000
0!
0'
#530000000
1!
1$
0&
1'
1*
0,
1-
0/
#540000000
0!
0'
#550000000
1!
0$
1%
1'
0*
1+
0-
1.
#560000000
0!
0'
#570000000
1!
0%
1&
1'
0+
1,
0.
1/
#580000000
0!
0'
#590000000
1!
1$
0&
1'
1*
0,
1-
0/
#600000000
0!
0'
#610000000
1!
0$
1%
1'
0*
1+
0-
1.
#620000000
0!
0'
#630000000
1!
0%
1&
1'
0+
1,
0.
1/
#640000000
0!
0'
#650000000
1!
1$
0&
1'
1*
0,
1-
0/
#660000000
0!
0'
#670000000
1!
0$
1%
1'
0*
1+
0-
1.
#680000000
0!
0'
#690000000
1!
0%
1&
1'
0+
1,
0.
1/
#700000000
0!
0'
#710000000
1!
1$
0&
1'
1*
0,
1-
0/
#720000000
0!
0'
#730000000
1!
0$
1%
1'
0*
1+
0-
1.
#740000000
0!
0'
#750000000
1!
0%
1&
1'
0+
1,
0.
1/
#760000000
0!
0'
#770000000
1!
1$
0&
1'
1*
0,
1-
0/
#780000000
0!
0'
#790000000
1!
0$
1%
1'
0*
1+
0-
1.
#800000000
0!
0'
#810000000
1!
0%
1&
1'
0+
1,
0.
1/
#820000000
0!
0'
#830000000
1!
1$
0&
1'
1*
0,
1-
0/
#840000000
0!
0'
#850000000
1!
0$
1%
1'
0*
1+
0-
1.
#860000000
0!
0'
#870000000
1!
0%
1&
1'
0+
1,
0.
1/
#880000000
0!
0'
#890000000
1!
1$
0&
1'
1*
0,
1-
0/
#900000000
0!
0'
#910000000
1!
0$
1%
1'
0*
1+
0-
1.
#920000000
0!
0'
#930000000
1!
0%
1&
1'
0+
1,
0.
1/
#940000000
0!
0'
#950000000
1!
1$
0&
1'
1*
0,
1-
0/
#960000000
0!
0'
#970000000
1!
0$
1%
1'
0*
1+
0-
1.
#980000000
0!
0'
#990000000
1!
0%
1&
1'
0+
1,
0.
1/
