Lecture 5/traffic_light_system_mealy_tb.vcd
$date
  Tue Jul 04 18:09:36 2023
$end
$version
  GHDL v0
$end
$timescale
  1 fs
$end
$var reg 1 ! clk $end
$var reg 1 " reset $end
$var reg 1 # enable $end
$var reg 1 $ input $end
$var reg 1 % red $end
$var reg 1 & yellow $end
$var reg 1 ' green $end
$scope module uut $end
$var reg 1 ( clk $end
$var reg 1 ) reset $end
$var reg 1 * enable $end
$var reg 1 + input $end
$var reg 1 , red $end
$var reg 1 - yellow $end
$var reg 1 . green $end
$comment current_state is not handled $end
$comment next_state is not handled $end
$var reg 1 / output_red $end
$var reg 1 0 output_yellow $end
$var reg 1 1 output_green $end
$upscope $end
$enddefinitions $end
#0
0!
1"
0#
0$
0%
0&
1'
0(
1)
0*
0+
0,
0-
1.
0/
00
11
#5000000
0"
1#
0)
1*
#10000000
1!
1(
#15000000
1$
1+
#20000000
0!
0(
#30000000
1!
0$
1%
0'
1(
0+
1,
0.
1/
01
#40000000
0!
1$
0(
1+
#50000000
1!
0%
1&
1(
0,
1-
0/
10
#55000000
0#
0$
0*
0+
#60000000
0!
0(
#70000000
1!
1(
#75000000
1#
1*
#80000000
0!
0(
#85000000
1$
1+
#90000000
1!
0&
1'
1(
0-
1.
00
11
#100000000
0!
0$
0(
0+
#110000000
1!
1%
0'
1(
1,
0.
1/
01
#120000000
0!
1"
0%
1'
0(
1)
0,
1.
0/
11
#125000000
0"
0)
#130000000
1!
1%
0'
1(
1,
0.
1/
01
#135000000
1$
1+
#140000000
0!
0(
#150000000
1!
0$
0%
1&
1(
0+
0,
1-
0/
10
#160000000
0!
1$
0(
1+
#170000000
1!
0&
1'
1(
0-
1.
00
11
#175000000
0#
0$
0*
0+
#180000000
0!
0(
#190000000
1!
1(
#195000000
1#
1*
#200000000
0!
0(
#205000000
1$
1+
#210000000
1!
1%
0'
1(
1,
0.
1/
01
#220000000
0!
0$
0(
0+
#230000000
1!
0%
1&
1(
0,
1-
0/
10
#240000000
0!
1"
0&
1'
0(
1)
0-
1.
00
11
#245000000
0"
0)
#250000000
1!
1&
0'
1(
1-
0.
10
01
#255000000
1$
1+
#260000000
0!
0(
#270000000
1!
0$
0&
1'
1(
0+
0-
1.
00
11
#280000000
0!
1$
0(
1+
#290000000
1!
1%
0'
1(
1,
0.
1/
01
#295000000
0#
0$
0*
0+
#300000000
0!
0(
#310000000
1!
1(
#315000000
1#
1*
#320000000
0!
0(
#325000000
1$
1+
#330000000
1!
0%
1&
1(
0,
1-
0/
10
#340000000
0!
0$
0(
0+
#350000000
1!
0&
1'
1(
0-
1.
00
11
#360000000
0!
1"
0(
1)
#365000000
0"
0)
#370000000
1!
1(
#375000000
1$
1+
#380000000
0!
0(
#390000000
1!
0$
1%
0'
1(
0+
1,
0.
1/
01
#400000000
0!
1$
0(
1+
#410000000
1!
0%
1&
1(
0,
1-
0/
10
#415000000
0#
0$
0*
0+
#420000000
0!
0(
#430000000
1!
1(
#435000000
1#
1*
#440000000
0!
0(
#445000000
1$
1+
#450000000
1!
0&
1'
1(
0-
1.
00
11
#460000000
0!
0$
0(
0+
#470000000
1!
1%
0'
1(
1,
0.
1/
01
#480000000
0!
1"
0%
1'
0(
1)
0,
1.
0/
11
#485000000
0"
0)
#490000000
1!
1%
0'
1(
1,
0.
1/
01
#495000000
1$
1+
