Lecture 3/ha_tb.vcd
$date
  Sat May 20 14:14:54 2023
$end
$version
  GHDL v0
$end
$timescale
  1 fs
$end
$var reg 1 ! a $end
$var reg 1 " b $end
$var reg 1 # s $end
$var reg 1 $ c $end
$scope module ha0 $end
$var reg 1 % a $end
$var reg 1 & b $end
$var reg 1 ' s $end
$var reg 1 ( c $end
$upscope $end
$enddefinitions $end
#0
X!
X"
X#
X$
X%
X&
X'
X(
#10000000
0!
0"
0#
0$
0%
0&
0'
0(
#20000000
1"
1#
1&
1'
#30000000
1!
0"
1%
0&
#40000000
1"
0#
1$
1&
0'
1(
#50000000
X!
X"
X#
X$
X%
X&
X'
X(
#60000000
0!
0"
0#
0$
0%
0&
0'
0(
#70000000
1"
1#
1&
1'
#80000000
1!
0"
1%
0&
#90000000
1"
0#
1$
1&
0'
1(
#100000000
X!
X"
X#
X$
X%
X&
X'
X(
#110000000
0!
0"
0#
0$
0%
0&
0'
0(
#120000000
1"
1#
1&
1'
#130000000
1!
0"
1%
0&
#140000000
1"
0#
1$
1&
0'
1(
#150000000
X!
X"
X#
X$
X%
X&
X'
X(
#160000000
0!
0"
0#
0$
0%
0&
0'
0(
#170000000
1"
1#
1&
1'
#180000000
1!
0"
1%
0&
#190000000
1"
0#
1$
1&
0'
1(
#200000000
X!
X"
X#
X$
X%
X&
X'
X(
#210000000
0!
0"
0#
0$
0%
0&
0'
0(
#220000000
1"
1#
1&
1'
#230000000
1!
0"
1%
0&
#240000000
1"
0#
1$
1&
0'
1(
#250000000
X!
X"
X#
X$
X%
X&
X'
X(
#260000000
0!
0"
0#
0$
0%
0&
0'
0(
#270000000
1"
1#
1&
1'
#280000000
1!
0"
1%
0&
#290000000
1"
0#
1$
1&
0'
1(
#300000000
X!
X"
X#
X$
X%
X&
X'
X(
#310000000
0!
0"
0#
0$
0%
0&
0'
0(
#320000000
1"
1#
1&
1'
#330000000
1!
0"
1%
0&
#340000000
1"
0#
1$
1&
0'
1(
#350000000
X!
X"
X#
X$
X%
X&
X'
X(
#360000000
0!
0"
0#
0$
0%
0&
0'
0(
#370000000
1"
1#
1&
1'
#380000000
1!
0"
1%
0&
#390000000
1"
0#
1$
1&
0'
1(
#400000000
X!
X"
X#
X$
X%
X&
X'
X(
#410000000
0!
0"
0#
0$
0%
0&
0'
0(
#420000000
1"
1#
1&
1'
#430000000
1!
0"
1%
0&
#440000000
1"
0#
1$
1&
0'
1(
#450000000
X!
X"
X#
X$
X%
X&
X'
X(
#460000000
0!
0"
0#
0$
0%
0&
0'
0(
#470000000
1"
1#
1&
1'
#480000000
1!
0"
1%
0&
#490000000
1"
0#
1$
1&
0'
1(
#500000000
X!
X"
X#
X$
X%
X&
X'
X(
#510000000
0!
0"
0#
0$
0%
0&
0'
0(
#520000000
1"
1#
1&
1'
#530000000
1!
0"
1%
0&
#540000000
1"
0#
1$
1&
0'
1(
#550000000
X!
X"
X#
X$
X%
X&
X'
X(
#560000000
0!
0"
0#
0$
0%
0&
0'
0(
#570000000
1"
1#
1&
1'
#580000000
1!
0"
1%
0&
#590000000
1"
0#
1$
1&
0'
1(
#600000000
X!
X"
X#
X$
X%
X&
X'
X(
#610000000
0!
0"
0#
0$
0%
0&
0'
0(
#620000000
1"
1#
1&
1'
#630000000
1!
0"
1%
0&
#640000000
1"
0#
1$
1&
0'
1(
#650000000
X!
X"
X#
X$
X%
X&
X'
X(
#660000000
0!
0"
0#
0$
0%
0&
0'
0(
#670000000
1"
1#
1&
1'
#680000000
1!
0"
1%
0&
#690000000
1"
0#
1$
1&
0'
1(
#700000000
X!
X"
X#
X$
X%
X&
X'
X(
#710000000
0!
0"
0#
0$
0%
0&
0'
0(
#720000000
1"
1#
1&
1'
#730000000
1!
0"
1%
0&
#740000000
1"
0#
1$
1&
0'
1(
#750000000
X!
X"
X#
X$
X%
X&
X'
X(
#760000000
0!
0"
0#
0$
0%
0&
0'
0(
#770000000
1"
1#
1&
1'
#780000000
1!
0"
1%
0&
#790000000
1"
0#
1$
1&
0'
1(
#800000000
X!
X"
X#
X$
X%
X&
X'
X(
#810000000
0!
0"
0#
0$
0%
0&
0'
0(
#820000000
1"
1#
1&
1'
#830000000
1!
0"
1%
0&
#840000000
1"
0#
1$
1&
0'
1(
#850000000
X!
X"
X#
X$
X%
X&
X'
X(
#860000000
0!
0"
0#
0$
0%
0&
0'
0(
#870000000
1"
1#
1&
1'
#880000000
1!
0"
1%
0&
#890000000
1"
0#
1$
1&
0'
1(
#900000000
X!
X"
X#
X$
X%
X&
X'
X(
#910000000
0!
0"
0#
0$
0%
0&
0'
0(
#920000000
1"
1#
1&
1'
#930000000
1!
0"
1%
0&
#940000000
1"
0#
1$
1&
0'
1(
#950000000
X!
X"
X#
X$
X%
X&
X'
X(
#960000000
0!
0"
0#
0$
0%
0&
0'
0(
#970000000
1"
1#
1&
1'
#980000000
1!
0"
1%
0&
#990000000
1"
0#
1$
1&
0'
1(
